ID,Código,Nome,"Data de registo",Movimento,Data,Hora,Periodo,"Tipo periodo",Departamento
85f,we5,"Moisés Félix Henda Laurindo","0000-00-00 00:00:00",,0000-00-00,00:00:00,São,2,dep1
85f,we5,"Moisés Félix Henda Laurindo","0000-00-00 00:00:00",São,0000-00-00,00:00:00,São,2,dep1
85f,we5,"Moisés Félix Henda Laurindo","0000-00-00 00:00:00",São,0000-00-00,00:00:00,São,2,dep1
